<svg width="21" height="26" viewBox="0 0 21 26" fill="none" xmlns="http://www.w3.org/2000/svg">
<path d="M20.9877 24.9141L19.4438 7.29479C19.4017 6.81362 19.0081 6.44506 18.5368 6.44506H15.3529V4.97356C15.3529 2.23114 13.1757 0 10.4996 0C7.82367 0 5.64676 2.23114 5.64676 4.97356V6.44506H2.46068C1.98931 6.44506 1.59577 6.81362 1.55363 7.29479L0.00364141 24.9834C-0.0191865 25.2445 0.0660539 25.5032 0.238599 25.6965C0.411144 25.8899 0.655087 26 0.910687 26H20.0869C20.0876 26 20.0886 26 20.0893 26C20.5924 26 21 25.5822 21 25.0668C20.9999 25.0149 20.9958 24.9638 20.9877 24.9141ZM7.46813 4.97356C7.46813 3.2603 8.82809 1.86644 10.4998 1.86644C12.1715 1.86644 13.5316 3.2603 13.5316 4.97356V6.44506H7.46813V4.97356ZM1.90686 24.1337L3.29329 8.3115H5.64676V9.98035C5.64676 10.4957 6.05438 10.9136 6.55744 10.9136C7.06051 10.9136 7.46813 10.4957 7.46813 9.98035V8.3115H13.5316V9.98035C13.5316 10.4957 13.9392 10.9136 14.4423 10.9136C14.9454 10.9136 15.353 10.4957 15.353 9.98035V8.3115H17.7043L19.0907 24.1337H1.90686Z" fill="black"/>
</svg>
